Minimizar x1**2+x2**2+x1*x2-14*x1-16*x2+(x3-10)**2+4*(x4-5)**2+(x5-3)**2+2*(x6-1)**2+5*x7**2+7*(x8-11)**2+2*(x9-10)**2+(x10-7)**2+45;$-10<=x1<=10;-10<=x2<=10;-10<=x3<=10;-10<=x4<=10;-10<=x5<=10;-10<=x6<=10;-10<=x7<=10;-10<=x8<=10;-10<=x9<=10;-10<=x10<=10;$-105+4*x1+5*x2-3*x7+9*x8 <= 0;10*x1-8*x2-17*x7+2*x8 <= 0;-8*x1+2*x2+5*x9-2*x10-12 <= 0;3*(x1-2)**2+4*(x2-3)**2+2*x3**2-7*x4-120 <= 0;5*x1**2+8*x2+(x3-6)**2-2*x4-40 <= 0;x1**2+2*(x2-2)**2-2*x1*x2+14*x5-6*x6 <= 0;0.5*(x1-8)**2+2*(x2-4)**2+3*x5**2-x6-30 <= 0;-3*x1+6*x2+12*(x9-8)**2-7*x10 <= 0;$$$ED$5$100$x1 , x2 , x3 , x4 , x5 , x6 , x7 , x8 , x9 , x10 , fo1(x) , SVR
6.000000000000 6.000000000000 6.000000000000 6.000000000000 6.000000000000 6.000000000000 6.000000000000 6.000000000000 6.000000000000 6.000000000000 440.000000000000 326.0
6.000000000000 6.000000000000 6.000000000000 6.000000000000 6.000000000000 6.000000000000 6.000000000000 6.000000000000 6.000000000000 6.000000000000 440.000000000000 326.0
6.000000000000 6.000000000000 6.000000000000 6.000000000000 6.000000000000 6.000000000000 6.000000000000 6.000000000000 6.000000000000 6.000000000000 440.000000000000 326.0
6.000000000000 6.000000000000 6.000000000000 6.000000000000 6.000000000000 6.000000000000 6.000000000000 6.000000000000 6.000000000000 6.000000000000 440.000000000000 326.0
6.000000000000 6.000000000000 6.000000000000 6.000000000000 6.000000000000 6.000000000000 6.000000000000 6.000000000000 6.000000000000 6.000000000000 440.000000000000 326.0
